…
First a sample data set is created. This example is about patients who
have some treatment in a hospital and after this treatment have an event
or not. Event can be complication death or something else depending on
the application.

``` r
df <- tibble(
  patient_id = 1:100,
  hospital_id = sample(15, 100, replace = TRUE),
  event = rep(0:1, 50)
)
df
```

    ## # A tibble: 100 x 3
    ##    patient_id hospital_id event
    ##         <int>       <int> <int>
    ##  1          1          14     0
    ##  2          2           7     1
    ##  3          3          10     0
    ##  4          4           8     1
    ##  5          5           8     0
    ##  6          6          11     1
    ##  7          7          11     0
    ##  8          8          15     1
    ##  9          9           4     0
    ## 10         10           8     1
    ## # ... with 90 more rows
…
Using this range and using the
[formula](https://www.mathsisfun.com/data/confidence-interval.html) for
calculating confidence intervals we can make a new data frame:

``` r
df_conf <- tibble(
  n_patients = n_patients_seq,
  conf_upper = total_event_ratio + 1.96 * (sd(df$event) / sqrt(n_patients)),
  conf_lower = total_event_ratio - 1.96 * (sd(df$event) / sqrt(n_patients))
)
df_conf
```

    ## # A tibble: 110 x 3
    ##    n_patients conf_upper conf_lower
    ##         <dbl>      <dbl>      <dbl>
    ##  1        0.1       3.61     -2.61 
    ##  2        0.2       2.70     -1.70 
    ##  3        0.3       2.30     -1.30 
    ##  4        0.4       2.06     -1.06 
    ##  5        0.5       1.89     -0.893
    ##  6        0.6       1.77     -0.772
    ##  7        0.7       1.68     -0.677
    ##  8        0.8       1.60     -0.601
    ##  9        0.9       1.54     -0.538
    ## 10        1         1.48     -0.485
    ## # ... with 100 more rows
…
