…
nest example with babynames
========================================================




```r
babynames_everpresent
```

```
# A tibble: 128,064 x 5
    year sex   name          n   prop
   <dbl> <chr> <chr>     <int>  <dbl>
 1  1880 F     Mary       7065 0.0724
 2  1880 F     Anna       2604 0.0267
 3  1880 F     Emma       2003 0.0205
 4  1880 F     Elizabeth  1939 0.0199
 5  1880 F     Minnie     1746 0.0179
 6  1880 F     Margaret   1578 0.0162
 7  1880 F     Ida        1472 0.0151
 8  1880 F     Alice      1414 0.0145
 9  1880 F     Bertha     1320 0.0135
10  1880 F     Sarah      1288 0.0132
# … with 128,054 more rows
```
…
```r
babymods <- babynames_everpresent %>% 
  group_by(name, sex) %>% 
  nest() %>%
  mutate(
    fit = map(data, make_model),
    slope = map_dbl(fit, get_slope),
    r_squared = map_dbl(fit, get_r_squared)
  )
babymods
```

```
# A tibble: 928 x 6
# Groups:   sex, name [928]
   sex   name      data               fit          slope r_squared
   <chr> <chr>     <list>             <list>       <dbl>     <dbl>
 1 F     Mary      <tibble [138 × 3]> <lm>   -0.000572     0.914  
 2 F     Anna      <tibble [138 × 3]> <lm>   -0.000176     0.703  
 3 F     Emma      <tibble [138 × 3]> <lm>   -0.0000597    0.196  
 4 F     Elizabeth <tibble [138 × 3]> <lm>   -0.0000729    0.715  
 5 F     Minnie    <tibble [138 × 3]> <lm>   -0.0000943    0.638  
 6 F     Margaret  <tibble [138 × 3]> <lm>   -0.000171     0.804  
 7 F     Ida       <tibble [138 × 3]> <lm>   -0.0000842    0.712  
 8 F     Alice     <tibble [138 × 3]> <lm>   -0.000108     0.890  
 9 F     Bertha    <tibble [138 × 3]> <lm>   -0.0000927    0.750  
10 F     Sarah     <tibble [138 × 3]> <lm>    0.00000565   0.00324
# … with 918 more rows
```
…
